…
    ## Simple feature collection with 51 features and 1 field
    ## geometry type:  GEOMETRY
    ## dimension:      XY
    ## bbox:           xmin: -124.7328 ymin: 23.51704 xmax: -66.96927 ymax: 49.37173
    ## epsg (SRID):    NA
    ## proj4string:    NA
    ## # A tibble: 51 x 2
    ##    id                                                             geometry
    ##    <chr>                                                        <GEOMETRY>
    ##  1 alabama         POLYGON ((-85.07007 31.9807, -85.11515 31.90742, -85.1…
    ##  2 alaska          MULTIPOLYGON (((-123.4406 23.58187, -123.4768 23.62274…
    ##  3 arizona         POLYGON ((-114.5206 33.02771, -114.5591 33.03678, -114…
    ##  4 arkansas        POLYGON ((-94.46169 34.19677, -94.45262 34.50843, -94.…
    ##  5 california      MULTIPOLYGON (((-118.351 32.8192, -118.4201 32.80611, …
    ##  6 colorado        POLYGON ((-102.0445 37.64147, -102.042 37.38628, -102.…
    ##  7 connecticut     POLYGON ((-73.53039 41.52275, -73.51715 41.66569, -73.…
    ##  8 delaware        POLYGON ((-75.70707 38.55759, -75.71071 38.64967, -75.…
    ##  9 district of co… POLYGON ((-77.00793 38.96667, -76.9109 38.8901, -77.04…
    ## 10 florida         MULTIPOLYGON (((-80.24945 25.35494, -80.35567 25.15823…
    ## # ... with 41 more rows
…
    ## Simple feature collection with 51 features and 1 field
    ## geometry type:  GEOMETRY
    ## dimension:      XY
    ## bbox:           xmin: -124.7328 ymin: 23.51704 xmax: -66.96927 ymax: 49.37173
    ## epsg (SRID):    NA
    ## proj4string:    NA
    ## # A tibble: 51 x 2
    ##    id                                                             geometry
    ##    <chr>                                                        <GEOMETRY>
    ##  1 alabama         POLYGON ((-85.07007 31.9807, -85.11515 31.90742, -85.1…
    ##  2 alaska          MULTIPOLYGON (((-123.4406 23.58187, -123.4768 23.62274…
    ##  3 arizona         POLYGON ((-114.5206 33.02771, -114.5591 33.03678, -114…
    ##  4 arkansas        POLYGON ((-94.46169 34.19677, -94.45262 34.50843, -94.…
    ##  5 california      MULTIPOLYGON (((-118.351 32.8192, -118.4201 32.80611, …
    ##  6 colorado        POLYGON ((-102.0445 37.64147, -102.042 37.38628, -102.…
    ##  7 connecticut     POLYGON ((-73.53039 41.52275, -73.51715 41.66569, -73.…
    ##  8 delaware        POLYGON ((-75.70707 38.55759, -75.71071 38.64967, -75.…
    ##  9 district of co… POLYGON ((-77.00793 38.96667, -76.9109 38.8901, -77.04…
    ## 10 florida         MULTIPOLYGON (((-80.24945 25.35494, -80.35567 25.15823…
    ## # ... with 41 more rows
…
